[{
    "annual":{
        "basic": 199.99,
        "professional": 249.99,
        "master":399.99
    },
    "monthly":{
        "basic": 19.99,
        "professional": 24.99,
        "master":39.99
    }
}]
